module k8s-user-creator

go 1.20

require (
	github.com/mitchellh/go-homedir v1.1.0
	gopkg.in/yaml.v2 v2.3.0
	k8s.io/api v0.18.3
	k8s.io/apimachinery v0.18.3
	k8s.io/client-go v0.18.3
)

require (
	github.com/davecgh/go-spew v1.1.1 // indirect
	github.com/gogo/protobuf v1.3.1 // indirect
	github.com/golang/protobuf v1.3.2 // indirect
	github.com/google/gofuzz v1.1.0 // indirect
	github.com/googleapis/gnostic v0.1.0 // indirect
	github.com/imdario/mergo v0.3.9 // indirect
	github.com/json-iterator/go v1.1.8 // indirect
	github.com/modern-go/concurrent v0.0.0-20180306012644-bacd9c7ef1dd // indirect
	github.com/modern-go/reflect2 v1.0.1 // indirect
	github.com/spf13/pflag v1.0.5 // indirect
	golang.org/x/crypto v0.0.0-20200220183623-bac4c82f6975 // indirect
	golang.org/x/net v0.0.0-20191004110552-13f9640d40b9 // indirect
	golang.org/x/oauth2 v0.0.0-20200107190931-bf48bf16ab8d // indirect
	golang.org/x/sys v0.0.0-20191022100944-742c48ecaeb7 // indirect
	golang.org/x/text v0.3.2 // indirect
	golang.org/x/time v0.0.0-20200416051211-89c76fbcd5d1 // indirect
	google.golang.org/appengine v1.5.0 // indirect
	gopkg.in/inf.v0 v0.9.1 // indirect
	k8s.io/klog v1.0.0 // indirect
	k8s.io/utils v0.0.0-20200529193333-24a76e807f40 // indirect
	sigs.k8s.io/structured-merge-diff/v3 v3.0.0 // indirect
	sigs.k8s.io/yaml v1.2.0 // indirect
)
